\selectlanguage *{english}
\contentsline {chapter}{\numberline {1}Specifications}{1}{chapter.1}%
\contentsline {section}{\numberline {1.1}Stakeholders}{1}{section.1.1}%
\contentsline {section}{\numberline {1.2}Capabilities and Functional}{1}{section.1.2}%
\contentsline {section}{\numberline {1.3}Architecture}{1}{section.1.3}%
\contentsline {chapter}{\numberline {2}Manual}{2}{chapter.2}%
\contentsline {section}{\numberline {2.1}Overview}{2}{section.2.1}%
\contentsline {section}{\numberline {2.2}Set Up Free Hosting}{2}{section.2.2}%
\contentsline {section}{\numberline {2.3}Set Up Databases}{4}{section.2.3}%
\contentsline {section}{\numberline {2.4}Administration}{7}{section.2.4}%
\contentsline {subsection}{\numberline {2.4.1}Register}{7}{subsection.2.4.1}%
\contentsline {subsection}{\numberline {2.4.2}Add Vote}{8}{subsection.2.4.2}%
\contentsline {subsection}{\numberline {2.4.3}Deleting Users}{8}{subsection.2.4.3}%
\contentsline {subsection}{\numberline {2.4.4}Delete Vote}{9}{subsection.2.4.4}%
\contentsline {subsection}{\numberline {2.4.5}Getting Results}{9}{subsection.2.4.5}%
\contentsline {chapter}{\numberline {3}API}{10}{chapter.3}%
\contentsline {section}{\numberline {3.1}API Methods:}{10}{section.3.1}%
\contentsline {chapter}{\numberline {4}Fell free to contact us)}{12}{chapter.4}%
\contentsline {chapter}{\numberline {5}Indices and tables}{13}{chapter.5}%
