\relax 
\providecommand\hyper@newdestlabel[2]{}
\providecommand\HyperFirstAtBeginDocument{\AtBeginDocument}
\HyperFirstAtBeginDocument{\ifx\hyper@anchor\@undefined
\global\let\oldcontentsline\contentsline
\gdef\contentsline#1#2#3#4{\oldcontentsline{#1}{#2}{#3}}
\global\let\oldnewlabel\newlabel
\gdef\newlabel#1#2{\newlabelxx{#1}#2}
\gdef\newlabelxx#1#2#3#4#5#6{\oldnewlabel{#1}{{#2}{#3}}}
\AtEndDocument{\ifx\hyper@anchor\@undefined
\let\contentsline\oldcontentsline
\let\newlabel\oldnewlabel
\fi}
\fi}
\global\let\hyper@last\relax 
\gdef\HyperFirstAtBeginDocument#1{#1}
\providecommand*\HyPL@Entry[1]{}
\HyPL@Entry{0<</S/D>>}
\selectlanguage *{english}
\@writefile{toc}{\selectlanguage *{english}}
\@writefile{lof}{\selectlanguage *{english}}
\@writefile{lot}{\selectlanguage *{english}}
\HyPL@Entry{1<</S/r>>}
\HyPL@Entry{2<</S/D>>}
\newlabel{index::doc}{{}{1}{}{section*.2}{}}
\@writefile{toc}{\contentsline {chapter}{\numberline {1}Specifications}{1}{chapter.1}\protected@file@percent }
\@writefile{lof}{\addvspace {10\p@ }}
\@writefile{lot}{\addvspace {10\p@ }}
\newlabel{Specifications:specifications}{{1}{1}{Specifications}{chapter.1}{}}
\newlabel{Specifications::doc}{{1}{1}{Specifications}{chapter.1}{}}
\@writefile{toc}{\contentsline {section}{\numberline {1.1}Stakeholders}{1}{section.1.1}\protected@file@percent }
\newlabel{Specifications:stakeholders}{{1.1}{1}{Stakeholders}{section.1.1}{}}
\@writefile{toc}{\contentsline {section}{\numberline {1.2}Capabilities and Functional}{1}{section.1.2}\protected@file@percent }
\newlabel{Specifications:capabilities-and-functional}{{1.2}{1}{Capabilities and Functional}{section.1.2}{}}
\@writefile{toc}{\contentsline {section}{\numberline {1.3}Architecture}{1}{section.1.3}\protected@file@percent }
\newlabel{Specifications:architecture}{{1.3}{1}{Architecture}{section.1.3}{}}
\@writefile{toc}{\contentsline {chapter}{\numberline {2}Manual}{2}{chapter.2}\protected@file@percent }
\@writefile{lof}{\addvspace {10\p@ }}
\@writefile{lot}{\addvspace {10\p@ }}
\newlabel{Manual:manual}{{2}{2}{Manual}{chapter.2}{}}
\newlabel{Manual::doc}{{2}{2}{Manual}{chapter.2}{}}
\@writefile{toc}{\contentsline {section}{\numberline {2.1}Overview}{2}{section.2.1}\protected@file@percent }
\newlabel{Manual:overview}{{2.1}{2}{Overview}{section.2.1}{}}
\@writefile{toc}{\contentsline {section}{\numberline {2.2}Set Up Free Hosting}{2}{section.2.2}\protected@file@percent }
\newlabel{Manual:set-up-free-hosting}{{2.2}{2}{Set Up Free Hosting}{section.2.2}{}}
\@writefile{toc}{\contentsline {section}{\numberline {2.3}Set Up Databases}{4}{section.2.3}\protected@file@percent }
\newlabel{Manual:set-up-databases}{{2.3}{4}{Set Up Databases}{section.2.3}{}}
\@writefile{toc}{\contentsline {section}{\numberline {2.4}Administration}{7}{section.2.4}\protected@file@percent }
\newlabel{Manual:administration}{{2.4}{7}{Administration}{section.2.4}{}}
\@writefile{toc}{\contentsline {subsection}{\numberline {2.4.1}Register}{7}{subsection.2.4.1}\protected@file@percent }
\newlabel{Manual:register}{{2.4.1}{7}{Register}{subsection.2.4.1}{}}
\@writefile{toc}{\contentsline {subsection}{\numberline {2.4.2}Add Vote}{8}{subsection.2.4.2}\protected@file@percent }
\newlabel{Manual:add-vote}{{2.4.2}{8}{Add Vote}{subsection.2.4.2}{}}
\@writefile{toc}{\contentsline {subsection}{\numberline {2.4.3}Deleting Users}{8}{subsection.2.4.3}\protected@file@percent }
\newlabel{Manual:deleting-users}{{2.4.3}{8}{Deleting Users}{subsection.2.4.3}{}}
\@writefile{toc}{\contentsline {subsection}{\numberline {2.4.4}Delete Vote}{9}{subsection.2.4.4}\protected@file@percent }
\newlabel{Manual:delete-vote}{{2.4.4}{9}{Delete Vote}{subsection.2.4.4}{}}
\@writefile{toc}{\contentsline {subsection}{\numberline {2.4.5}Getting Results}{9}{subsection.2.4.5}\protected@file@percent }
\newlabel{Manual:getting-results}{{2.4.5}{9}{Getting Results}{subsection.2.4.5}{}}
\@writefile{toc}{\contentsline {chapter}{\numberline {3}API}{10}{chapter.3}\protected@file@percent }
\@writefile{lof}{\addvspace {10\p@ }}
\@writefile{lot}{\addvspace {10\p@ }}
\newlabel{Api:api}{{3}{10}{API}{chapter.3}{}}
\newlabel{Api::doc}{{3}{10}{API}{chapter.3}{}}
\@writefile{toc}{\contentsline {section}{\numberline {3.1}API Methods:}{10}{section.3.1}\protected@file@percent }
\newlabel{Api:api-methods}{{3.1}{10}{API Methods:}{section.3.1}{}}
\@writefile{toc}{\contentsline {chapter}{\numberline {4}Fell free to contact us)}{12}{chapter.4}\protected@file@percent }
\@writefile{lof}{\addvspace {10\p@ }}
\@writefile{lot}{\addvspace {10\p@ }}
\newlabel{Contacts:fell-free-to-contact-us}{{4}{12}{Fell free to contact us)}{chapter.4}{}}
\newlabel{Contacts::doc}{{4}{12}{Fell free to contact us)}{chapter.4}{}}
\@writefile{toc}{\contentsline {chapter}{\numberline {5}Indices and tables}{13}{chapter.5}\protected@file@percent }
\@writefile{lof}{\addvspace {10\p@ }}
\@writefile{lot}{\addvspace {10\p@ }}
\newlabel{index:indices-and-tables}{{5}{13}{Indices and tables}{chapter.5}{}}
